^C:\USERS\ASUS\SOURCE\REPOS\SERVER\SERVER\SERVER.CPP
C:\USERS\ASUS\SOURCE\REPOS\SERVER\SERVER\DEBUG\VC142.PDB
C:\USERS\ASUS\SOURCE\REPOS\SERVER\SERVER\DEBUG\VC142.IDB
C:\USERS\ASUS\SOURCE\REPOS\SERVER\SERVER\DEBUG\SERVER.OBJ
