Initialising Winsock... 
Initialised.
  Socket created.
  Bind done 
 Waiting for incoming connections... 
[18920]:idle/n
[18920]:idle/n
[18920]:idle/n
[18920]:idle/n
Welcome message sent successfully [18920]:idle/n
Welcome message sent successfully [18920]:idle/n
Welcome message sent successfully [18920]:idle/n
Welcome message sent successfully [18920]:idle/n
Welcome message sent successfully [18920]:idle/n
[18920]:idle/n
[18920]:idle/n
[18920]:idle/n
[18920]:idle/n
[18920]:idle/n
[18920]:idle/n
[18920]:idle/n
[18920]:idle/n
[18920]:idle/n
[18920]:idle/n
[18920]:idle/n
[18920]:idle/n
[18920]:idle/n
[18920]:idle/n
[18920]:idle/n
[18920]:idle/n
[18920]:idle/n
[18920]:idle/n
[18920]:idle/n
[18920]:idle/n
[18920]:idle/n
[18920]:idle/n
